^C:\USERS\JAKEB\DOCUMENTS\CS\VISUAL STUDIO 2015\PROJECTS\PA 2\PA 2\DEBUG\MAIN.OBJ|C:\USERS\JAKEB\DOCUMENTS\CS\VISUAL STUDIO 2015\PROJECTS\PA 2\PA 2\DEBUG\PA2.OBJ
/OUT:"C:\USERS\JAKEB\DOCUMENTS\CS\VISUAL STUDIO 2015\PROJECTS\PA 2\DEBUG\PA 2.EXE" /INCREMENTAL /NOLOGO KERNEL32.LIB USER32.LIB GDI32.LIB WINSPOOL.LIB COMDLG32.LIB ADVAPI32.LIB SHELL32.LIB OLE32.LIB OLEAUT32.LIB UUID.LIB ODBC32.LIB ODBCCP32.LIB /MANIFEST /MANIFESTUAC:"level='asInvoker' uiAccess='false'" /manifest:embed /DEBUG /PDB:"C:\USERS\JAKEB\DOCUMENTS\CS\VISUAL STUDIO 2015\PROJECTS\PA 2\DEBUG\PA 2.PDB" /SUBSYSTEM:CONSOLE /TLBID:1 /DYNAMICBASE /NXCOMPAT /IMPLIB:"C:\USERS\JAKEB\DOCUMENTS\CS\VISUAL STUDIO 2015\PROJECTS\PA 2\DEBUG\PA 2.LIB" /MACHINE:X86 DEBUG\MAIN.OBJDEBUG\PA2.OBJ
^C:\USERS\JAKEB\DOCUMENTS\CS\VISUAL STUDIO 2015\PROJECTS\PAS 2 AND 3\PA 2\DEBUG\MAIN.OBJ|C:\USERS\JAKEB\DOCUMENTS\CS\VISUAL STUDIO 2015\PROJECTS\PAS 2 AND 3\PA 2\DEBUG\PA2.OBJ|C:\USERS\JAKEB\DOCUMENTS\CS\VISUAL STUDIO 2015\PROJECTS\PAS 2 AND 3\PA 2\DEBUG\PA2TESTS.OBJ
/OUT:"C:\USERS\JAKEB\DOCUMENTS\CS\VISUAL STUDIO 2015\PROJECTS\PAS 2 AND 3\DEBUG\PA 2.EXE" /INCREMENTAL /NOLOGO KERNEL32.LIB USER32.LIB GDI32.LIB WINSPOOL.LIB COMDLG32.LIB ADVAPI32.LIB SHELL32.LIB OLE32.LIB OLEAUT32.LIB UUID.LIB ODBC32.LIB ODBCCP32.LIB /MANIFEST /MANIFESTUAC:"level='asInvoker' uiAccess='false'" /manifest:embed /DEBUG /PDB:"C:\USERS\JAKEB\DOCUMENTS\CS\VISUAL STUDIO 2015\PROJECTS\PAS 2 AND 3\DEBUG\PA 2.PDB" /SUBSYSTEM:CONSOLE /TLBID:1 /DYNAMICBASE /NXCOMPAT /IMPLIB:"C:\USERS\JAKEB\DOCUMENTS\CS\VISUAL STUDIO 2015\PROJECTS\PAS 2 AND 3\DEBUG\PA 2.LIB" /MACHINE:X86 DEBUG\MAIN.OBJDEBUG\PA2.OBJDEBUG\PA2TESTS.OBJ
